core/vcd/adder.vcd
$date Thu Jan 17 11:16:04 CET 2013 $end 
$version s pin 0.6.0 $end 
$comment 
$end 
$timescale 10 ns $end
$scope  module Top $end
$scope  module Adder $end
$var event 1 zzz zz $end  
$var wire 1 zzz xx $end  
$var wire 4 aaa sum $end
$upscope Adder $end
$var wire 4 aab s1 $end
$var wire 4 aab sgfffffgggg $end 
$var wire 4 aac s2 $end
$var real 1 aad sr $end

$enddefinitions 
$end 
#0
b0 aab
b0 aac
r0.0 aad
b0 aaa
b0 aaa
b0 zzz
#10
r0.03999933333666666 aad
#20
r0.07999466677333232 aad
#30
r0.11998200080998264 aad
#40
r0.15995733674653664 aad
#50
r0.19991667708271332 aad
#60
r0.23985602591777838 aad
#70
r0.27977138935013107 aad
#80
r0.3196587758766908 aad  
#90
r0.35951419679204416 aad
#100
r0.3993336665873126 aad
b11 aab
b11 aaa
#110
r0.43911320334869924 aad
#120
r0.47884882915567745 aad
#130
r0.5185365704787794 aad
#140
r0.558172458576946 aad
#150
r0.5977525298943969 aad 
#160
r0.6372728264569839 aad
#170
r0.6767293962679841 aad 
#180
r0.7161182937032967 aad
#190
r0.7554355799060023 aad
#200
r0.7946773231802449 aad
b101 aac
b1000 aaa
#210
bx zzz
r0.8338395993843982 aad
#220
r0.8729184923234773 aad
#230
r0.9119100941407536 aad
#240
r0.9508105057085383 aad
#250
r0.9896158370180917 aad
#260
b0 zzz
r1.0283222075686205 aad
#270
r1.0669257467553246 aad
#280
r1.105422594256455 aad
#290
r1.1438089004193421 aad
#300
r1.1820808266453582 aad
b10 aab
b111 aaa
#310
r1.220234545773774 aad
#320
r1.258266242464471 aad
#330
r1.2961721135794735 aad
#340
r1.3339483685632576 aad
#350
r1.3715912298218054 aad
#360
r1.4090969331003598 aad
#370
r1.446461727859848 aad
#380
r1.4836818776519307 aad
#390
r1.5207536604926457 aad
#400
r1.557673369234602 aad
b110 aac
b1000 aaa
#410
r1.5944373119376916 aad
#420
r1.6310418122382806 aad
#430
r1.667483209716843 aad
#440
r1.7037578602639984 aad
#450
r1.739862136444921 aad
#460
r1.7757924278620791 aad
#470
r1.811545141516273 aad
#480
r1.8471167021659316 aad
#490
r1.882503552684632 aad
#500
r1.917702154416812 aad
#510
r1.95270898753163 aad
#520
r1.987520551374947 aad
#530
r2.0221333648193878 aad
#540
r2.0565439666124528 aad
#550
r2.090748915722637 aad
#560
r2.1247447916835336 aad
#570
r2.1585281949358768 aad
#580
r2.1920957471674942 aad
#590
r2.225444091651135 aad
#600
r2.2585698935801415 aad
#610
r2.291469840401925 aad
#620
r2.3241406421492203 aad
#630
r2.356579031769078 aad
#640
r2.3887817654495684 aad
#650
r2.420745622944158 aad
#660
r2.452467407893735 aad
#670
r2.483943948146239 aad
#680
r2.5151720960738744 aad
#690
r2.5461487288878715 aad
#700
r2.576870748950764 aad
#710
r2.6073350840861464 aad
#720
r2.6375386878858924 aad
#730
r2.6674785400147916 aad
#740
r2.69715164651258 aad
#750
r2.7265550400933365 aad
#760
r2.7556857804422052 aad
#770
r2.784540954509427 aad
#780
r2.8131176768016406 aad
#790
r2.8414130896704313 aad
#800
r2.869424363598091 aad
#810
r2.8971486974805702 aad
#820
r2.924583318907583 aad
#830
r2.9517254844398506 aad
#840
r2.978572479883437 aad
#850
r3.005121620561171 aad
#860
r3.031370251581108 aad
#870
r3.0573157481020203 aad
#880
r3.082955515595877 aad
#890
r3.1082869901072954 aad
#900
r3.1333076385099337 aad
#910
b0 zzz
r3.158014958759802 aad
#920
r3.182406480145464 aad
#930
r3.2064797635351088 aad
#940
r3.230232401620457 aad 
#950
r3.253662019157495 aad
#960
r3.276766273203993 aad
#970
r3.2995428533538003 aad
#980
r3.321989481967882 aad
#990
r3.344103914402082 aad
#1000
r3.365883939231586 aad
r3.365883939231586 aad
r3.365883939231586 aad
r3.365883939231586 aad
r3.365883939231586 aad
